2.352077602767944313e+02
2.641933460235595632e+01
1.815384981155395394e+01
1.602984953880310215e+01
1.479599386215210011e+01
1.383060738563537662e+01
1.285373787879943919e+01
1.212610778808593714e+01
1.142606931686401417e+01
1.080203817367553754e+01
1.054403111457824771e+01
1.005532213211059656e+01
9.845504074096679048e+00
9.396990098953246218e+00
9.254661312103271698e+00
9.056513247489929697e+00
8.897921652793884917e+00
8.699100332260131907e+00
8.639419441223145313e+00
8.556132512092590403e+00
8.400445489883422212e+00
8.233334236145019247e+00
8.223166332244872478e+00
8.177714834213256623e+00
8.122914137840270499e+00
7.753892807960510503e+00
7.697860932350158336e+00
7.633271822929382111e+00
7.589725904464721395e+00
7.604574670791626190e+00
7.580836844444275080e+00
7.492984075546264222e+00
7.365585312843323074e+00
7.286759171485901021e+00
7.199271750450134455e+00
7.173050584793091211e+00
7.160938181877136266e+00
7.197762532234191823e+00
7.174555468559264959e+00
7.116363945007324610e+00
7.105169339179992605e+00
7.016039619445800568e+00
6.946237611770629705e+00
6.920057716369629297e+00
6.942779092788696538e+00
6.917511243820190003e+00
6.882856664657592383e+00
6.803590269088744868e+00
6.810281333923339453e+00
6.827612471580505549e+00
