3.535373505020141351e+02
3.117682350158691307e+01
1.869200395584106289e+01
1.689832078933715920e+01
1.564377935409545906e+01
1.445364703178405819e+01
1.351831243515014691e+01
1.270819417953491204e+01
1.204640529632568402e+01
1.142741723060607839e+01
1.099188896179199304e+01
1.057004813194274817e+01
1.014351897239685130e+01
9.920592184066771679e+00
9.629949817657470490e+00
9.438469820022582724e+00
9.425229158401489116e+00
9.094719915390014009e+00
8.831830744743347950e+00
8.761569209098816202e+00
8.730154008865357085e+00
8.567899184226989817e+00
8.568949308395385600e+00
8.475172219276428720e+00
8.198327374458312278e+00
8.052229251861572124e+00
7.923575358390808177e+00
7.871302309036255274e+00
7.834162597656249893e+00
7.840854468345642481e+00
7.846836767196655238e+00
7.685568909645080993e+00
7.522390079498291193e+00
7.549949407577514648e+00
7.438858747482299805e+00
7.486509957313537633e+00
7.409897274971008585e+00
7.408176465034484792e+00
7.278811378479003835e+00
7.227367100715636816e+00
7.222180438041687189e+00
7.186231937408447124e+00
7.171967020034790252e+00
7.144641065597534535e+00
7.136534910202026794e+00
7.091360478401184331e+00
7.032796812057495295e+00
7.051833229064941477e+00
7.034177317619323411e+00
7.032500228881835902e+00
