3.922319972991943473e+02
3.104366933822631935e+01
1.860078891754150376e+01
1.679059007644653434e+01
1.575456192016601520e+01
1.469252387046813979e+01
1.392934717178344783e+01
1.306822839736938491e+01
1.235861044883728077e+01
1.173949956893920898e+01
1.119365656852722246e+01
1.081643440246581989e+01
1.045904087066650412e+01
1.024234660148620613e+01
9.915822439193725302e+00
9.688113327026366406e+00
9.351496372222900533e+00
9.228204216957092143e+00
9.109877948760987110e+00
9.107617578506470579e+00
8.888181595802306489e+00
8.770576157569884401e+00
8.721201429367065217e+00
8.604214568138122132e+00
8.468608798980712393e+00
8.417876405715942312e+00
8.433950376510619407e+00
8.289585828781127930e+00
8.260788316726683789e+00
8.205301046371459961e+00
8.086114430427551625e+00
7.873374857902526891e+00
7.779354863166808798e+00
7.770058035850524902e+00
7.720473227500915137e+00
7.593835806846618297e+00
7.499186248779296626e+00
7.465969934463500657e+00
7.432193703651428507e+00
7.454154376983642472e+00
7.421569995880126669e+00
7.353981380462646378e+00
7.297121863365173766e+00
7.330196681022644434e+00
7.213137474060058452e+00
7.221278262138366877e+00
7.168887834548950622e+00
7.185013375282287562e+00
7.153148159980774246e+00
7.108393301963806366e+00
