4.280205993652343466e+01
1.936719755172729407e+01
1.777344341278076101e+01
1.693489209175109877e+01
1.533518227577209458e+01
1.463838416099548390e+01
1.404213876724243093e+01
1.349623373031616147e+01
1.292257296562194746e+01
1.258937664985656824e+01
1.212629583358764584e+01
1.171107833862304659e+01
1.149462615966796797e+01
1.107553743362426779e+01
1.080895083427429171e+01
1.058703871726989831e+01
1.029949213981628375e+01
1.014517203330993667e+01
9.964975290298461630e+00
9.809917755126953409e+00
9.469776582717894797e+00
9.319943990707397319e+00
9.279162120819091086e+00
9.081615467071532777e+00
9.064750747680664134e+00
8.819244737625121289e+00
8.831435317993163281e+00
8.698939986228943155e+00
8.569386472702026580e+00
8.432590899467468759e+00
8.436517047882080789e+00
8.334321627616882111e+00
8.215061597824096395e+00
8.163271460533142232e+00
8.056481509208678560e+00
8.036367230415343954e+00
8.062093162536621449e+00
7.722682824134826873e+00
7.658309097290039169e+00
7.586529989242553285e+00
7.582016162872314169e+00
7.607721009254455602e+00
7.518879985809325817e+00
7.462155675888061168e+00
7.427814702987671325e+00
7.382068915367126394e+00
7.292069129943847372e+00
7.195482540130615057e+00
7.159729590415954803e+00
7.128628706932067516e+00
