4.121053588867187756e+01
1.607878048934936487e+03
1.694442838668823370e+01
6.841108537673950707e+01
2.515501615524291879e+01
1.371831958770751925e+01
1.298725946426391609e+01
1.201703849792480483e+01
4.241545545578002674e+01
1.087574012756347663e+01
1.054232559204101527e+01
1.026451200485229442e+01
1.058673234939575281e+01
9.683258266448975249e+00
9.919967937469483132e+00
9.361517467498778444e+00
9.290774574279785369e+00
9.078040571212769194e+00
8.979312648773193573e+00
8.844429016113281250e+00
8.803120489120482617e+00
8.773137502670287802e+00
8.822980632781982635e+00
8.564935512542724894e+00
8.966904487609863139e+00
8.642023429870604900e+00
1.054251541137695369e+01
8.479554357528686026e+00
9.167781829833984375e+00
8.361828403472900462e+00
8.482151689529418448e+00
8.264332466125487997e+00
8.181637191772461293e+00
8.143449745178223509e+00
8.055771856307982759e+00
8.450020904541014843e+00
8.055749378204346556e+00
8.212282943725586648e+00
7.855445308685302663e+00
7.971036939620971928e+00
7.758208341598511026e+00
7.779330873489380238e+00
7.868406076431273988e+00
7.802914457321167063e+00
7.816378755569457937e+00
7.818926563262939666e+00
7.612016630172729670e+00
7.614519453048705699e+00
7.804763545989990448e+00
7.620433368682861364e+00
